type,value,
base_theme,2,
theme_boost_header_color,-14869219,
theme_text_header_1_line,-1,
theme_text_header_2_line,-1,
theme_statuses_color,-14145496,
theme_link_color,-26624,
theme_icons_color,-26624,
pref_color_background,-13092808,
pref_color_navigation_bar,true,
pref_color_status_bar,true,
theme_accent,-26624,
theme_text_color,-1,
theme_primary,-14408668,
